{"page":1,"total_results":19957,"total_pages":998,"results":[{"vote_count":565,"id":351286,"video":false,"vote_average":6.7,"title":"Jurassic World 2: El reino caído","popularity":277.02214,"poster_path":"\/zeNCIgB4cfAN7dKRsCuDeLIgrYy.jpg","original_language":"en","original_title":"Jurassic World: Fallen Kingdom","genre_ids":[28,12,878],"backdrop_path":"\/gBmrsugfWpiXRh13Vo3j0WW55qD.jpg","adult":false,"overview":"Tras cuatro años de abandono del complejo turístico Jurassic World, Isla Nublar sólo está habitada por los dinosaurios supervivientes. Cuando el volcán de la isla entra en erupción, Owen (Chris Pratt) y Claire (Bryce Dallas Howard) vuelven allí para rescatar a los dinosaurios de la extinción. Owen va en busca de Blue, el raptor al que crió mientras que Claire, que ha empezado a valorar a estas criaturas, se centra más en salvar al resto. Cuando llegan a la isla descubren una conspiración que pretende llevar al planeta de nuevo a la era prehistórica.","release_date":"2018-06-06"},{"vote_count":2223,"id":383498,"video":false,"vote_average":7.7,"title":"Deadpool 2","popularity":212.116692,"poster_path":"\/to0spRl1CMDvyUbOnbb4fTk3VAd.jpg","original_language":"en","original_title":"Deadpool 2","genre_ids":[28,35,878],"backdrop_path":"\/3P52oz9HPQWxcwHOwxtyrVV1LKi.jpg","adult":false,"overview":"Después de sobrevivir a un ataque bovino casi mortal, el desfigurado chef de una cafetería (Wade Wilson) lucha por cumplir su sueño de convertirse en el barman más caliente de Mayberry mientras aprende a lidiar con su perdido sentido del gusto. Buscando algo de picante para su vida, así como un condensador de fluzo, Wade deberá luchar contra ninjas, la yakuza y un grupo sexualmente agresivos de canes, mientras recorre el mundo para descubrir la importancia de la familia, la amistad y el sabor, encontrando un nuevo gusto por la aventura y logrando el codiciado título de taza de café de “Mejor amante del mundo”.","release_date":"2018-05-15"},{"vote_count":4798,"id":299536,"video":false,"vote_average":8.4,"title":"Vengadores: Infinity War","popularity":158.252861,"poster_path":"\/rDLmMzkaFMFWF1UnnlboMfifVXM.jpg","original_language":"en","original_title":"Avengers: Infinity War","genre_ids":[12,878,14,28],"backdrop_path":"\/lmZFxXgJE3vgrciwuDib0N8CfQo.jpg","adult":false,"overview":"Vengadores: Infinity War seguirá la lucha de los superhéroes de Marvel contra el mayor villano al que se han enfrentado nunca: Thanos. Su único objetivo será detener a este poderoso antagonista e impedir que se haga con el control de la galaxia. De nuevo veremos al grupo formado por Iron Man, Capitán América, Viuda negra, Ant-Man, Ojo de Halcón, Thor y Hulk, entre otros. En su nueva e impactante aventura, las Gemas del Infinito estarán en juego, unos querrán protegerlas y otros controlarlas, ¿quién ganará?","release_date":"2018-04-25"},{"vote_count":6772,"id":284053,"video":false,"vote_average":7.4,"title":"Thor: Ragnarok","popularity":149.198446,"poster_path":"\/s7hV8HFh7w2EZ4GK5EiltRVvWJA.jpg","original_language":"en","original_title":"Thor: Ragnarok","genre_ids":[28,12,14,878,35],"backdrop_path":"\/kaIfm5ryEOwYg8mLbq8HkPuM1Fo.jpg","adult":false,"overview":"Thor está preso al otro lado del universo sin su poderoso martillo y se enfrenta a una carrera contra el tiempo. Su objetivo es volver a Asgard y parar el Ragnarok porque significaría la destrucción de su planeta natal y el fin de la civilización Asgardiana a manos de una todopoderosa y nueva amenaza, la implacable Hela. Pero, primero deberá sobrevivir a una competición letal de gladiadores que lo enfrentará a su aliado y compañero en los Vengadores, ¡el Increíble Hulk!","release_date":"2017-10-25"},{"vote_count":6114,"id":284054,"video":false,"vote_average":7.3,"title":"Black Panther","popularity":118.837098,"poster_path":"\/udd8VinUWwLIiTYn3wdOEpCk9Fq.jpg","original_language":"en","original_title":"Black Panther","genre_ids":[28,12,14,878],"backdrop_path":"\/6ELJEzQJ3Y45HczvreC3dg0GV5R.jpg","adult":false,"overview":"\"Black Panther\" cuenta la historia de T'Challa quien, después de los acontecimientos de \"Capitán América: Civil War\", vuelve a casa, a la nación de Wakanda, aislada y muy avanzada tecnológicamente, para ser proclamado Rey. Pero la reaparición de un viejo enemigo pone a prueba el temple de T'Challa como Rey y Black Panther ya que se ve arrastrado a un conflicto que pone en peligro todo el destino de Wakanda y del mundo.","release_date":"2018-02-13"},{"vote_count":11073,"id":135397,"video":false,"vote_average":6.5,"title":"Jurassic World","popularity":117.764484,"poster_path":"\/7OkXsuILP3UuT32g4OkRcJ2PofU.jpg","original_language":"en","original_title":"Jurassic World","genre_ids":[28,12,878,53],"backdrop_path":"\/t5KONotASgVKq4N19RyhIthWOPG.jpg","adult":false,"overview":"Veintidós años después de lo ocurrido en Jurassic Park, la isla Nublar ha sido transformada en un parque temático, Jurassic Wold, con versiones «domesticadas» de algunos de los dinosaurios más conocidos. Cuando todo parece ir a la perfección y ser el negocio del siglo, un nuevo dinosaurio de especie todavía desconocida y que es mucho más inteligente de lo que se pensaba, comienza a causar estragos entre los visitantes del Parque.","release_date":"2015-06-06"},{"vote_count":917,"id":348350,"video":false,"vote_average":6.8,"title":"Han Solo: Una historia de Star Wars","popularity":109.128602,"poster_path":"\/1C30gYq4RWpaCruweKVHX934hXa.jpg","original_language":"en","original_title":"Solo: A Star Wars Story","genre_ids":[28,12,878],"backdrop_path":"\/7LZ0K4FsALrt7OeNIGOVLNuKQRU.jpg","adult":false,"overview":"Precuela de la saga Star Wars, en la que se conocerán los primeros pasos que dio el personaje de Han Solo, desde joven hasta convertirse en el antihéroe que vimos en \"Una nueva esperanza\", antes de que se encontrase con Luke y Obi-Wan en la cantina de Mos Eisley.","release_date":"2018-05-23"},{"vote_count":1608,"id":338970,"video":false,"vote_average":6.2,"title":"Tomb Raider","popularity":107.548079,"poster_path":"\/u3xx4Vd6idl4kynRh7qL6eJWVEA.jpg","original_language":"en","original_title":"Tomb Raider","genre_ids":[28,12,14,18,9648,53],"backdrop_path":"\/bLJTjfbZ1c5zSNiAvGYs1Uc82ir.jpg","adult":false,"overview":"Lara Croft (Alicia Vikander) es una joven e inexperta arqueóloga que se embarcará en su primera aventura para terminar la investigación arqueológica iniciada por su padre, y descubrir así antiguos secretos con el fin de limpiar el deshonrado nombre de su progenitor. Esta expedición llena de peligros será una lucha por la supervivencia, con nuevas pruebas y nuevos enemigos, en la que Croft, poco a poco, se irá convirtiendo en la heroína que todos conocemos. La historia de una mujer corriente que descubre su carácter de luchadora al verse obligada a poner a prueba sus habilidades de lucha con el único propósito de salir con vida.","release_date":"2018-03-08"},{"vote_count":9056,"id":297762,"video":false,"vote_average":7.2,"title":"Wonder Woman","popularity":106.111532,"poster_path":"\/skVHFykCQrEwQJdrpUHgJbvqo1u.jpg","original_language":"en","original_title":"Wonder Woman","genre_ids":[28,12,14,10752,878],"backdrop_path":"\/6iUNJZymJBMXXriQyFZfLAKnjO6.jpg","adult":false,"overview":"Antes de ser Wonder Woman, era Diana, princesa de las Amazonas, entrenada para ser una guerrera invencible. Diana fue criada en una isla paradisíaca protegida. Hasta que un día un piloto norteamericano, que tiene un accidente y acaba en sus costas, le habla de un gran conflicto existente en el mundo, la Primera Guerra Mundial. Diana decide salir de la isla convencida de que puede detener la terrible amenaza. Mientras lucha junto a los hombres en la guerra que acabará con todas las guerras, Diana descubre todos sus poderes y su verdadero destino.","release_date":"2017-05-30"},{"vote_count":24,"id":525102,"video":false,"vote_average":3.7,"title":"Girl Lost","popularity":101.951054,"poster_path":"\/n3PDMPyFG04bcXUHHhRIwWd9cx1.jpg","original_language":"en","original_title":"Girl Lost","genre_ids":[18],"backdrop_path":"\/j3FnUedjz0NHYFfZ62u9WsBU0wy.jpg","adult":false,"overview":"Girl Lost aborda el tema de la prostitución de menores de edad según lo dicho a través de los ojos de una adolescente díscola. Preparada por su propia madre para trabajar en los bajos fondos de Los Ángeles, la joven lucha por sobrevivir en este mundo oscuro.","release_date":"2018-05-01"},{"vote_count":13409,"id":118340,"video":false,"vote_average":7.9,"title":"Guardianes de la galaxia","popularity":95.448882,"poster_path":"\/9Ju7p4daJi5rcTUghYZxHlP15ia.jpg","original_language":"en","original_title":"Guardians of the Galaxy","genre_ids":[28,878,12],"backdrop_path":"\/bHarw8xrmQeqf3t8HpuMY7zoK4x.jpg","adult":false,"overview":"El temerario aventurero Peter Quill es objeto de un implacable cazarrecompensas después de robar una misteriosa esfera codiciada por Ronan, un poderoso villano cuya ambición amenaza todo el universo. Para poder escapar del incansable Ronan, Quill se ve obligado a pactar una complicada tregua con un cuarteto de disparatados inadaptados: Rocket, un mapache armado con un rifle, Groot, un humanoide con forma de árbol, la letal y enigmática Gamora y el vengativo Drax the Destroyer. Pero cuando Quill descubre el verdadero poder de la esfera, deberá hacer todo lo posible para derrotar a sus extravagantes rivales en un intento desesperado de salvar el destino de la galaxia.","release_date":"2014-07-30"},{"vote_count":144,"id":402900,"video":false,"vote_average":6.8,"title":"Ocean's 8","popularity":91.937399,"poster_path":"\/uY5kUdgvMeeARfS6gwy4PZqVvAM.jpg","original_language":"en","original_title":"Ocean's 8","genre_ids":[80,35,28,53],"backdrop_path":"\/zBIfBeStaDdDdhBrSx8InhgFUVa.jpg","adult":false,"overview":"Debbie, ex-convicta hermana de Danny Ocean será la líder de un nuevo equipo de ladrones profesionales. Con la ayuda de su mano derecha (Blanchett) planearán robar un valioso collar que está en manos de un malvado galerista.","release_date":"2018-06-07"},{"vote_count":2070,"id":337167,"video":false,"vote_average":6,"title":"Cincuenta sombras liberadas","popularity":77.871022,"poster_path":"\/eLa1TaO78vbqANvfcRHZBnI1F3Q.jpg","original_language":"en","original_title":"Fifty Shades Freed","genre_ids":[18,10749],"backdrop_path":"\/9ywA15OAiwjSTvg3cBs9B7kOCBF.jpg","adult":false,"overview":"Creyendo que han dejado atrás las sombras del pasado, los recién casados Christian y Anastasia disfrutan de su relación y de su vida llena de lujos. Pero justo cuando Ana empieza a relajarse, aparecen nuevas amenazas que ponen en riesgo su felicidad. Adaptación de la última novela de la saga \"50 sombras de Grey\".","release_date":"2018-01-17"},{"vote_count":844,"id":268896,"video":false,"vote_average":5.9,"title":"Pacific Rim: Insurrección","popularity":74.073649,"poster_path":"\/wqx5NUA7CUcL5G8HIjO4GfwUrSg.jpg","original_language":"en","original_title":"Pacific Rim: Uprising","genre_ids":[28,14,878,12],"backdrop_path":"\/mo5EJsExrQCroqPDwUwp6jeq0xS.jpg","adult":false,"overview":"Un futuro cercano. Después de la primera invasión que sufrió la humanidad, la lucha aun no ha terminado. El planeta vuelve a ser asediado por los Kaiju, una raza de alienígenas colosales que emergen desde un portal interdimensional, con el objetivo de destruir a la raza humana.  Ante esta nueva amenaza para la cual los humanos no están preparados, los Jaegers, robots gigantes de guerra pilotados por dos personas para sobrellevar la inmensa carga neural que conlleva manipularlos, ya no están a la altura de lo que se les viene encima. Será entonces cuando los supervivientes de la primera invasión, además de nuevos personajes como el hijo de Pentecost (John Boyega), tendrán que idear la manera de sorprender al enorme enemigo, apostando por nuevas estrategias defensivas y de ataque. Con la Tierra en ruinas e intentando reconstruirse, esta nueva batalla puede ser decisiva para el futuro.","release_date":"2018-03-21"},{"vote_count":3815,"id":281338,"video":false,"vote_average":6.9,"title":"La guerra del planeta de los simios","popularity":72.425682,"poster_path":"\/lTwp3vdxcewkaLw41w0mVGRsHYw.jpg","original_language":"en","original_title":"War for the Planet of the Apes","genre_ids":[18,878,10752],"backdrop_path":"\/ulMscezy9YX0bhknvJbZoUgQxO5.jpg","adult":false,"overview":"César y sus monos son forzados a encarar un conflicto mortal contra un ejército de humanos liderado por un brutal coronel. Después de sufrir pérdidas enormes, César lucha con sus instintos más oscuros en una búsqueda por vengar a su especie. Cuando finalmente se encuentren, Cesar y el Coronel protagonizarán una batalla que pondrá en juego el futuro de ambas especies y el del mismo planeta. Tercera película de la nueva saga de El Planeta de los Simios.","release_date":"2017-07-11"},{"vote_count":641,"id":449176,"video":false,"vote_average":8.3,"title":"Con amor, Simon","popularity":70.730958,"poster_path":"\/1GsJRXXMh4lvdZPCMFLU2sGu0id.jpg","original_language":"en","original_title":"Love, Simon","genre_ids":[35,18,10749],"backdrop_path":"\/rqMEeajyzSF4PpJtdCB816Iz8Vr.jpg","adult":false,"overview":"Simon Spier es un joven 16 años que no se atreve a revelar su homosexualidad, ya que prefiere esperar al musical que se celebra en secundaria. Pero un día, uno de sus correos electrónicos llega a manos equivocadas y las cosas se complican extraordinariamente.","release_date":"2018-03-16"},{"vote_count":5765,"id":119450,"video":false,"vote_average":7.3,"title":"El amanecer del planeta de los simios","popularity":68.214714,"poster_path":"\/jxKdIqcAVC461gijzEBJmJcavTI.jpg","original_language":"en","original_title":"Dawn of the Planet of the Apes","genre_ids":[878,28,18,53],"backdrop_path":"\/t7VSsAbIQS6kpO4ikuCNSiugsSy.jpg","adult":false,"overview":"Un grupo de simios con grandes cualidades para la supervivencia toman las calles. Liderados por Cesar, un simio dotado de una inteligencia y unos instintos superiores para cualquier primate. Ante la necesidad de libertad de esta raza animal deciden no doblegarse ante el condicional humano y demostrar su fuerza y su valor.  Tendrán que luchar contra un grupo de humanos que han sobrevivido a una fuerte epidemia desatada en la década anterior. Ambas partes han establecido una tregua que se verá interrumpida debido a la necesidad de eliminar una coexistencia entre especies.","release_date":"2014-06-26"},{"vote_count":9272,"id":10195,"video":false,"vote_average":6.7,"title":"Thor","popularity":67.811092,"poster_path":"\/26WXrojPp63Nu2FzxYDAtO90APn.jpg","original_language":"en","original_title":"Thor","genre_ids":[12,14,28],"backdrop_path":"\/LvmmDZxkTDqp0DX7mUo621ahdX.jpg","adult":false,"overview":"Thor es un arrogante y codicioso guerrero cuya imprudencia desata una antigua guerra. Por ese motivo, su padre Odín lo castiga desterrándolo a la Tierra para que viva entre los hombres y descubra así el verdadero sentido de la humildad. Cuando el villano más peligroso de su mundo envía a la Tierra a las fuerzas más oscuras de Asgard, Thor se dará cuenta de lo que realmente hace falta para ser un verdadero héroe.","release_date":"2011-04-21"},{"vote_count":0,"id":482560,"video":false,"vote_average":0,"title":"???:??? ?","popularity":65.335143,"poster_path":"\/jPxatX1ReNULfOOZEDuc5o6T9nT.jpg","original_language":"ko","original_title":"???:??? ?","genre_ids":[10749,18],"backdrop_path":null,"adult":false,"overview":"","release_date":"2017-01-01"},{"vote_count":7119,"id":76338,"video":false,"vote_average":6.7,"title":"Thor: El mundo oscuro","popularity":64.241301,"poster_path":"\/lBDYEfyGMYgNUgBd036sXNm9LYO.jpg","original_language":"en","original_title":"Thor: The Dark World","genre_ids":[28,12,14],"backdrop_path":"\/3FweBee0xZoY77uO1bhUOlQorNH.jpg","adult":false,"overview":"Thor lucha por restablecer el orden en el cosmos, pero una antigua raza liderada por el vengativo Malekith regresa con el propósito de volver a sumir el universo en la oscuridad. Se trata de un villano con el que ni siquiera Odín y Asgard se atreven a enfrentarse; por esa razón, Thor tendrá que emprender un viaje muy peligroso, durante el cual se reunirá con Jane Foster y la obligará a sacrificarlo todo para salvar el mundo.","release_date":"2013-10-29"}]}